Introducing <font color='#FEBC11'>Lavaan</font> for Latent Variable Analysis in R
…
---

class: inverse, center, middle

## Example 1: Confirmatory Factor Analysis (CFA)

---

### A Two-Factor CFA Model

.pull-left[

```
## # A tibble: 500 × 6
##       y1      y2     y3     y4     y5      y6
##    <dbl>   <dbl>  <dbl>  <dbl>  <dbl>   <dbl>
## 1 -0.535  0.0996 -0.887 -1.24  -3.49   1.44  
## 2  0.522  0.959   2.62   2.67   0.438  0.794 
## 3  1.58   2.48    3.08   0.908  2.22  -0.0673
## 4 -0.458  0.885   0.250 -1.08  -1.36  -0.910 
## 5  0.276 -0.840  -2.08  -0.441 -2.67  -1.24  
## # … with 495 more rows
```
…
---
class: inverse, center, middle 
## Example 2: Path Analysis

---

### A Path Model

.pull-left[

```
## # A tibble: 500 × 6
##   u1    u2    u3        x1     x2      x3
##   <ord> <ord> <ord>  <dbl>  <dbl>   <dbl>
## 1 1     0     2      0.573 -0.175 -1.34  
## 2 1     1     2     -0.577  0.425  0.180 
## 3 0     0     0     -0.694 -0.767  0.455 
## 4 0     0     0     -0.818 -1.56   0.580 
## 5 2     0     0      0.464 -0.898 -0.0535
## # … with 495 more rows
```
…
]

---

class: inverse, center, middle

## Example 3: Structural Equation Modeling (SEM)

---

### A SEM

```
## # A tibble: 500 × 12
##      y1    y2    y3    y4    y5    y6    y7    y8    y9   y10   y11   y12
##   <dbl> <dbl> <dbl> <dbl> <dbl> <dbl> <dbl> <dbl> <dbl> <dbl> <dbl> <dbl>
## 1 -0.53  0.1  -0.89 -1.24 -3.49  1.44 -0.3   0.14  1.7   2.42  0.05  0.44
## 2  1.58  2.48  3.08  0.91  2.22 -0.07  1.03  2.2   1.52  0    -0.46  0.04
## 3  0.28 -0.84 -2.08 -0.44 -2.67 -1.24 -1.92 -2.25 -0.8  -1.63  1    -0.59
## # … with 497 more rows
```
…
---

class: inverse, center, middle

## Example 4: Linear Growth Model 

---

### A Linear Growth Model 

.pull-left[.center[

```
## # A tibble: 500 × 4
##       y11   y12   y13   y14
##     <dbl> <dbl> <dbl> <dbl>
## 1  0.0369  1.47  1.68  1.95
## 2 -2.69    1.66  2.21  4.03
## 3  2.75    5.13  5.20  6.78
## 4  1.87    3.95  6.27  7.98
## 5  2.48    2.12  3.12  5.11
## # … with 495 more rows
```
…
